{
  "$schema": "https://docs.renovatebot.com/renovate-schema.json",
  "extends": [
    "config:base",
    ":timezone(Asia/Tokyo)",
    ":semanticCommitTypeAll(chore)",
    ":enableVulnerabilityAlertsWithLabel('security')",
    ":separatePatchReleases"
  ],
  "platformAutomerge": true,
  "rangeStrategy": "bump",
  "lockFileMaintenance": {
    "enabled": true,
    "automerge": true
  },
  "major": {
    "automerge": false
  },
  "minor": {
    "automerge": true,
    "groupName": "Minor updates",
    "stabilityDays": 5
  },
  "patch": {
    "automerge": true,
    "groupName": "Patch updates",
    "stabilityDays": 5
  }
}
